{
  "puns": [
    "I dreamed about drowning in an ocean made out of orange soda last night. It took me a while to work out it was just a Fanta sea.",
    "Why was the big cat disqualified from the race? Because it was a cheetah.",
    "Man, I really love my furniture... me and my recliner go way back.",
    "Which country's capital has the fastest-growing population? Ireland; everyday it's Dublin.",
    "I was going to make myself a belt made out of watches, but then I realized it would be a waist of time.",
    "What do you call a gay dinosaur? Mega-sore-ass.",
    "What do you call a thieving alligator? A crookodile.",
    "How do you organize a space party? You planet.",
    "If you've been thinking about karaoke with a friend, just duet!",
    "I love when candy canes are in mint condition",
    "Did you hear about the guy whose whole left side bit by a shark? He's all right now.",
    "I wasn't originally going to get a brain transplant, but then I changed my mind.",
    "Yesterday I accidentally swallowed some food coloring. The doctor says I'm OK, but I feel like I've dyed a little inside.",
    "I wondered why the baseball was getting bigger. Then it hit me.",
    "A friend of mine tried to annoy me with bird puns, but I soon realized that toucan play at that game.",
    "Have you ever tried to eat a clock? It's very time consuming.",
    "I once got into so much debt that I couldn't even afford my electricity bills, they were the darkest times of my life."
  ]
}